…
    ## See spec(...) for full column specifications.

``` r
transit_data
```

    ## # A tibble: 1,868 x 19
    ##    line  station_name station_latitude station_longitu~ route1 route2
    ##    <chr> <chr>                   <dbl>            <dbl> <chr>  <chr> 
    ##  1 4 Av~ 25th St                  40.7            -74.0 R      <NA>  
    ##  2 4 Av~ 25th St                  40.7            -74.0 R      <NA>  
    ##  3 4 Av~ 36th St                  40.7            -74.0 N      R     
    ##  4 4 Av~ 36th St                  40.7            -74.0 N      R     
    ##  5 4 Av~ 36th St                  40.7            -74.0 N      R     
    ##  6 4 Av~ 45th St                  40.6            -74.0 R      <NA>  
    ##  7 4 Av~ 45th St                  40.6            -74.0 R      <NA>  
    ##  8 4 Av~ 45th St                  40.6            -74.0 R      <NA>  
    ##  9 4 Av~ 45th St                  40.6            -74.0 R      <NA>  
    ## 10 4 Av~ 53rd St                  40.6            -74.0 R      <NA>  
    ## # ... with 1,858 more rows, and 13 more variables: route3 <chr>,
    ## #   route4 <chr>, route5 <chr>, route6 <chr>, route7 <chr>, route8 <int>,
    ## #   route9 <int>, route10 <int>, route11 <int>, entrance_type <chr>,
    ## #   entry <lgl>, vending <chr>, ada <lgl>
…
    ## [1] 0.09796574

The proportion of station entrances / exits without vending allow entrance is 0.098.

Reformat data so that route number and route name are distinct variables
------------------------------------------------------------------------

``` r
transit_data_reformat = 
  transit_data %>% 
  gather(key = route_number, value = route_name, route1:route11)
transit_data_reformat
```

    ## # A tibble: 20,548 x 10
    ##    line  station_name station_latitude station_longitu~ entrance_type entry
    ##    <chr> <chr>                   <dbl>            <dbl> <chr>         <lgl>
    ##  1 4 Av~ 25th St                  40.7            -74.0 Stair         TRUE 
    ##  2 4 Av~ 25th St                  40.7            -74.0 Stair         TRUE 
    ##  3 4 Av~ 36th St                  40.7            -74.0 Stair         TRUE 
    ##  4 4 Av~ 36th St                  40.7            -74.0 Stair         TRUE 
    ##  5 4 Av~ 36th St                  40.7            -74.0 Stair         TRUE 
    ##  6 4 Av~ 45th St                  40.6            -74.0 Stair         TRUE 
    ##  7 4 Av~ 45th St                  40.6            -74.0 Stair         TRUE 
    ##  8 4 Av~ 45th St                  40.6            -74.0 Stair         TRUE 
    ##  9 4 Av~ 45th St                  40.6            -74.0 Stair         TRUE 
    ## 10 4 Av~ 53rd St                  40.6            -74.0 Stair         TRUE 
    ## # ... with 20,538 more rows, and 4 more variables: vending <chr>,
    ## #   ada <lgl>, route_number <chr>, route_name <chr>
…
Import and clean the Mr. Trash Wheel sheet
------------------------------------------

``` r
wheel_data = 
  read_excel("./data/HealthyHarborWaterWheelTotals2017-9-26.xlsx",
             sheet = "Mr. Trash Wheel", range = cell_cols("A:N")) %>% 
  janitor::clean_names() %>% 
  filter(!is.na(dumpster)) %>% 
  mutate(sports_balls = round(sports_balls)) %>% 
  mutate(sports_balls = as.integer(sports_balls))
wheel_data
```

    ## # A tibble: 216 x 14
    ##    dumpster month  year date                weight_tons volume_cubic_ya~
    ##       <dbl> <chr> <dbl> <dttm>                    <dbl>            <dbl>
    ##  1        1 May    2014 2014-05-16 00:00:00        4.31               18
    ##  2        2 May    2014 2014-05-16 00:00:00        2.74               13
    ##  3        3 May    2014 2014-05-16 00:00:00        3.45               15
    ##  4        4 May    2014 2014-05-17 00:00:00        3.1                15
    ##  5        5 May    2014 2014-05-17 00:00:00        4.06               18
    ##  6        6 May    2014 2014-05-20 00:00:00        2.71               13
    ##  7        7 May    2014 2014-05-21 00:00:00        1.91                8
    ##  8        8 May    2014 2014-05-28 00:00:00        3.7                16
    ##  9        9 June   2014 2014-06-05 00:00:00        2.52               14
    ## 10       10 June   2014 2014-06-11 00:00:00        3.76               18
    ## # ... with 206 more rows, and 8 more variables: plastic_bottles <dbl>,
    ## #   polystyrene <dbl>, cigarette_butts <dbl>, glass_bottles <dbl>,
    ## #   grocery_bags <dbl>, chip_bags <dbl>, sports_balls <int>,
    ## #   homes_powered <dbl>
…
